Journal (reproducible report)
…
6.2 Challenge 2

world <- map_data("world")

covid_data_tbl %>% 
  distinct(cases, dateRep, countriesAndTerritories, popData2019) %>% 
  filter(countriesAndTerritories == 'Germany' | 
           countriesAndTerritories == 'United_Kingdom' | 
           countriesAndTerritories == 'Spain' | 
           countriesAndTerritories == 'France' | 
           countriesAndTerritories == 'United_States_of_America')

## # A tibble: 1,699 x 4
##    dateRep    cases countriesAndTerritories popData2019
##    <chr>      <dbl> <chr>                         <dbl>
##  1 04/12/2020 12696 France                     67012883
##  2 03/12/2020 14064 France                     67012883
##  3 02/12/2020  8083 France                     67012883
##  4 01/12/2020  4005 France                     67012883
##  5 30/11/2020  9784 France                     67012883
##  6 29/11/2020 12500 France                     67012883
##  7 28/11/2020 12539 France                     67012883
##  8 27/11/2020 13563 France                     67012883
##  9 26/11/2020 16282 France                     67012883
## 10 25/11/2020  9155 France                     67012883
## # … with 1,689 more rows
…
